{
  "@context": {
    "@base": "https://api.bloomberg.com/eap/catalogs/48408/requests/",
    "@vocab": "https://api.bloomberg.com/eap/ontology#"
  },
  "@id": "",
  "@type": "RequestCollection",
  "contains": [
    {
      "@id": "uXjFrYToJjNd/",
      "@type": "DataRequest",
      "description": "Some description",
      "fieldList": "https://api.bloomberg.com/eap/catalogs/48408/requests/uXjFrYToJjNd/fieldList/",
      "frequency": "adhoc",
      "identifier": "uXjFrYToJjNd",
      "issued": "2025-03-11T02:59:57.023122Z",
      "lastRunDateTime": "2025-03-11T03:00:01.782000Z",
      "modified": "2025-03-11T02:59:57.023122Z",
      "name": "Python301DataRequeste995af",
      "title": "",
      "trigger": "https://api.bloomberg.com/eap/catalogs/48408/requests/uXjFrYToJjNd/trigger/",
      "universe": "https://api.bloomberg.com/eap/catalogs/48408/requests/uXjFrYToJjNd/universe/"
    },
    {
      "@id": "uAu8j5moVZC2/",
      "@type": "DataRequest",
      "description": "Some description",
      "fieldList": "https://api.bloomberg.com/eap/catalogs/48408/requests/uAu8j5moVZC2/fieldList/",
      "frequency": "adhoc",
      "identifier": "uAu8j5moVZC2",
      "issued": "2025-03-11T02:56:49.844969Z",
      "lastRunDateTime": "2025-03-11T02:56:56.689000Z",
      "modified": "2025-03-11T02:56:49.844969Z",
      "name": "Python301DataRequest7a0698",
      "title": "",
      "trigger": "https://api.bloomberg.com/eap/catalogs/48408/requests/uAu8j5moVZC2/trigger/",
      "universe": "https://api.bloomberg.com/eap/catalogs/48408/requests/uAu8j5moVZC2/universe/"
    },
    {
      "@id": "uWRwK8EgNh42/",
      "@type": "DataRequest",
      "description": "Some description",
      "fieldList": "https://api.bloomberg.com/eap/catalogs/48408/requests/uWRwK8EgNh42/fieldList/",
      "frequency": "adhoc",
      "identifier": "uWRwK8EgNh42",
      "issued": "2025-03-11T02:53:26.338936Z",
      "lastRunDateTime": "2025-03-11T02:53:28.987000Z",
      "modified": "2025-03-11T02:53:26.338936Z",
      "name": "Python301DataRequest00ac2a",
      "title": "",
      "trigger": "https://api.bloomberg.com/eap/catalogs/48408/requests/uWRwK8EgNh42/trigger/",
      "universe": "https://api.bloomberg.com/eap/catalogs/48408/requests/uWRwK8EgNh42/universe/"
    },
    {
      "@id": "uFaWBTwUQw7N/",
      "@type": "DataRequest",
      "description": "",
      "fieldList": "https://api.bloomberg.com/eap/catalogs/48408/requests/uFaWBTwUQw7N/fieldList/",
      "frequency": "adhoc",
      "identifier": "uFaWBTwUQw7N",
      "issued": "2025-03-11T02:45:42.535594Z",
      "lastRunDateTime": "2025-03-11T02:45:47.288000Z",
      "modified": "2025-03-11T02:45:42.535594Z",
      "name": "tryingToGetTickerList",
      "title": "",
      "trigger": "https://api.bloomberg.com/eap/catalogs/48408/requests/uFaWBTwUQw7N/trigger/",
      "universe": "https://api.bloomberg.com/eap/catalogs/bbg/universes/usGovtSponsoredEnterpriseBonds/"
    },
    {
      "@id": "uZ43aQFeqCRE/",
      "@type": "TickHistoryRequest",
      "description": "Some description",
      "frequency": "adhoc",
      "identifier": "uZ43aQFeqCRE",
      "issued": "2025-03-11T02:35:10.237963Z",
      "lastRunDateTime": "2025-03-11T02:35:13.661000Z",
      "modified": "2025-03-11T02:35:10.237963Z",
      "name": "Python316TickHistoryOhlcRequest",
      "title": "",
      "trigger": "https://api.bloomberg.com/eap/catalogs/48408/requests/uZ43aQFeqCRE/trigger/",
      "universe": "https://api.bloomberg.com/eap/catalogs/48408/requests/uZ43aQFeqCRE/universe/"
    },
    {
      "@id": "udYccmzdThy1/",
      "@type": "DataRequest",
      "description": "Some description",
      "fieldList": "https://api.bloomberg.com/eap/catalogs/48408/requests/udYccmzdThy1/fieldList/",
      "frequency": "adhoc",
      "identifier": "udYccmzdThy1",
      "issued": "2025-03-11T02:30:12.191562Z",
      "lastRunDateTime": "2025-03-11T02:30:16.067000Z",
      "modified": "2025-03-11T02:30:12.191562Z",
      "name": "Python301DataRequestc1b4b6",
      "title": "",
      "trigger": "https://api.bloomberg.com/eap/catalogs/48408/requests/udYccmzdThy1/trigger/",
      "universe": "https://api.bloomberg.com/eap/catalogs/48408/requests/udYccmzdThy1/universe/"
    },
    {
      "@id": "uPfqiQGEh3w9/",
      "@type": "DataRequest",
      "description": "Fundamental ratios request",
      "fieldList": "https://api.bloomberg.com/eap/catalogs/48408/requests/uPfqiQGEh3w9/fieldList/",
      "frequency": "adhoc",
      "identifier": "uPfqiQGEh3w9",
      "issued": "2025-03-11T02:12:30.175469Z",
      "lastRunDateTime": "2025-03-11T02:12:35.471000Z",
      "modified": "2025-03-11T02:12:30.175469Z",
      "name": "Python302NestedDataRequest48bfce",
      "title": "",
      "trigger": "https://api.bloomberg.com/eap/catalogs/48408/requests/uPfqiQGEh3w9/trigger/",
      "universe": "https://api.bloomberg.com/eap/catalogs/48408/requests/uPfqiQGEh3w9/universe/"
    },
    {
      "@id": "uT2KsynpxWTG/",
      "@type": "DataRequest",
      "description": "Some description",
      "fieldList": "https://api.bloomberg.com/eap/catalogs/48408/requests/uT2KsynpxWTG/fieldList/",
      "frequency": "adhoc",
      "identifier": "uT2KsynpxWTG",
      "issued": "2025-03-11T02:06:13.681988Z",
      "lastRunDateTime": "2025-03-11T02:06:16.453000Z",
      "modified": "2025-03-11T02:06:13.681988Z",
      "name": "Python302NestedDataRequest6858ac",
      "title": "",
      "trigger": "https://api.bloomberg.com/eap/catalogs/48408/requests/uT2KsynpxWTG/trigger/",
      "universe": "https://api.bloomberg.com/eap/catalogs/48408/requests/uT2KsynpxWTG/universe/"
    },
    {
      "@id": "u87Qd1jsRedE/",
      "@type": "DataRequest",
      "description": "",
      "fieldList": "https://api.bloomberg.com/eap/catalogs/48408/requests/u87Qd1jsRedE/fieldList/",
      "frequency": "adhoc",
      "identifier": "u87Qd1jsRedE",
      "issued": "2025-03-11T01:56:55.166527Z",
      "lastRunDateTime": "2025-03-11T01:56:59.889000Z",
      "modified": "2025-03-11T01:56:55.166527Z",
      "name": "TestRest",
      "title": "",
      "trigger": "https://api.bloomberg.com/eap/catalogs/48408/requests/u87Qd1jsRedE/trigger/",
      "universe": "https://api.bloomberg.com/eap/catalogs/bbg/universes/spotFxPoundSterlingCross/"
    },
    {
      "@id": "ucL9uBDtcDVy/",
      "@type": "HistoryRequest",
      "description": "My Fundamentals history request",
      "fieldList": "https://api.bloomberg.com/eap/catalogs/48408/requests/ucL9uBDtcDVy/fieldList/",
      "frequency": "adhoc",
      "identifier": "ucL9uBDtcDVy",
      "issued": "2025-03-11T00:13:01.038400Z",
      "lastRunDateTime": "2025-03-11T00:13:05.029000Z",
      "modified": "2025-03-11T00:13:01.038400Z",
      "name": "Python317HistoryFundamentalsReq979970",
      "title": "",
      "trigger": "https://api.bloomberg.com/eap/catalogs/48408/requests/ucL9uBDtcDVy/trigger/",
      "universe": "https://api.bloomberg.com/eap/catalogs/48408/requests/ucL9uBDtcDVy/universe/"
    },
    {
      "@id": "u5YPiUoCRGmD/",
      "@type": "DataRequest",
      "description": "Some description",
      "fieldList": "https://api.bloomberg.com/eap/catalogs/bbg/fieldLists/openSourceFields/",
      "frequency": "adhoc",
      "identifier": "u5YPiUoCRGmD",
      "issued": "2025-03-11T00:08:46.312380Z",
      "lastRunDateTime": "2025-03-11T00:08:51.627000Z",
      "modified": "2025-03-11T00:08:46.312380Z",
      "name": "Python304DataRequestBloombergResffd93f",
      "title": "",
      "trigger": "https://api.bloomberg.com/eap/catalogs/48408/requests/u5YPiUoCRGmD/trigger/",
      "universe": "https://api.bloomberg.com/eap/catalogs/bbg/universes/germanyIndustrialBondsEuro/"
    },
    {
      "@id": "ueKGwkGkn5Pn/",
      "@type": "DataRequest",
      "description": "Some description",
      "fieldList": "https://api.bloomberg.com/eap/catalogs/48408/requests/ueKGwkGkn5Pn/fieldList/",
      "frequency": "adhoc",
      "identifier": "ueKGwkGkn5Pn",
      "issued": "2025-03-10T23:52:42.497658Z",
      "lastRunDateTime": "2025-03-10T23:52:49.704000Z",
      "modified": "2025-03-10T23:52:42.497658Z",
      "name": "Python301DataRequestc16022",
      "title": "",
      "trigger": "https://api.bloomberg.com/eap/catalogs/48408/requests/ueKGwkGkn5Pn/trigger/",
      "universe": "https://api.bloomberg.com/eap/catalogs/48408/requests/ueKGwkGkn5Pn/universe/"
    },
    {
      "@id": "uXyBejzAWJab/",
      "@type": "DataRequest",
      "description": "Some description",
      "fieldList": "https://api.bloomberg.com/eap/catalogs/48408/requests/uXyBejzAWJab/fieldList/",
      "frequency": "adhoc",
      "identifier": "uXyBejzAWJab",
      "issued": "2025-03-10T23:50:55.340261Z",
      "lastRunDateTime": "2025-03-10T23:50:59.204000Z",
      "modified": "2025-03-10T23:50:55.340261Z",
      "name": "Python301DataRequest8177e4",
      "title": "",
      "trigger": "https://api.bloomberg.com/eap/catalogs/48408/requests/uXyBejzAWJab/trigger/",
      "universe": "https://api.bloomberg.com/eap/catalogs/48408/requests/uXyBejzAWJab/universe/"
    },
    {
      "@id": "uhse8TuL9c8s/",
      "@type": "DataRequest",
      "description": "ESG data request using minimal fields",
      "fieldList": "https://api.bloomberg.com/eap/catalogs/48408/requests/uhse8TuL9c8s/fieldList/",
      "frequency": "adhoc",
      "identifier": "uhse8TuL9c8s",
      "issued": "2025-03-10T23:12:13.433110Z",
      "lastRunDateTime": "2025-03-10T23:12:19.750000Z",
      "modified": "2025-03-10T23:12:13.433110Z",
      "title": "ESGDataRequest_20250310_191213_96679b",
      "trigger": "https://api.bloomberg.com/eap/catalogs/48408/requests/uhse8TuL9c8s/trigger/",
      "universe": "https://api.bloomberg.com/eap/catalogs/48408/requests/uhse8TuL9c8s/universe/"
    },
    {
      "@id": "uK6vuJh1Ryut/",
      "@type": "DataRequest",
      "description": "ESG data request using minimal fields",
      "fieldList": "https://api.bloomberg.com/eap/catalogs/48408/requests/uK6vuJh1Ryut/fieldList/",
      "frequency": "adhoc",
      "identifier": "uK6vuJh1Ryut",
      "issued": "2025-03-10T23:10:50.439619Z",
      "lastRunDateTime": "2025-03-10T23:10:55.898000Z",
      "modified": "2025-03-10T23:10:50.439619Z",
      "title": "ESGDataRequest_20250310_191050_f66dcd",
      "trigger": "https://api.bloomberg.com/eap/catalogs/48408/requests/uK6vuJh1Ryut/trigger/",
      "universe": "https://api.bloomberg.com/eap/catalogs/48408/requests/uK6vuJh1Ryut/universe/"
    },
    {
      "@id": "uXwGFSzXDnFX/",
      "@type": "DataRequest",
      "description": "",
      "fieldList": "https://api.bloomberg.com/eap/catalogs/48408/requests/uXwGFSzXDnFX/fieldList/",
      "frequency": "adhoc",
      "identifier": "uXwGFSzXDnFX",
      "issued": "2025-03-10T22:43:14.101603Z",
      "lastRunDateTime": "2025-03-10T22:43:17.259000Z",
      "modified": "2025-03-10T22:43:14.101603Z",
      "name": "TickerListForTop51",
      "title": "",
      "trigger": "https://api.bloomberg.com/eap/catalogs/48408/requests/uXwGFSzXDnFX/trigger/",
      "universe": "https://api.bloomberg.com/eap/catalogs/48408/requests/uXwGFSzXDnFX/universe/"
    },
    {
      "@id": "ubsf28wHfAGs/",
      "@type": "DataRequest",
      "description": "",
      "fieldList": "https://api.bloomberg.com/eap/catalogs/48408/requests/ubsf28wHfAGs/fieldList/",
      "frequency": "adhoc",
      "identifier": "ubsf28wHfAGs",
      "issued": "2025-03-10T22:39:05.596838Z",
      "lastRunDateTime": "2025-03-10T22:39:10.758000Z",
      "modified": "2025-03-10T22:39:05.596838Z",
      "name": "ATest",
      "title": "",
      "trigger": "https://api.bloomberg.com/eap/catalogs/48408/requests/ubsf28wHfAGs/trigger/",
      "universe": "https://api.bloomberg.com/eap/catalogs/48408/requests/ubsf28wHfAGs/universe/"
    },
    {
      "@id": "u9BaqbuSZv3J/",
      "@type": "DataRequest",
      "description": "",
      "fieldList": "https://api.bloomberg.com/eap/catalogs/48408/requests/u9BaqbuSZv3J/fieldList/",
      "frequency": "adhoc",
      "identifier": "u9BaqbuSZv3J",
      "issued": "2025-03-10T22:28:42.197654Z",
      "lastRunDateTime": "2025-03-10T22:28:47.214000Z",
      "modified": "2025-03-10T22:28:42.197654Z",
      "name": "aa",
      "title": "",
      "trigger": "https://api.bloomberg.com/eap/catalogs/48408/requests/u9BaqbuSZv3J/trigger/",
      "universe": "https://api.bloomberg.com/eap/catalogs/48408/requests/u9BaqbuSZv3J/universe/"
    },
    {
      "@id": "uLEyUpTfRC4F/",
      "@type": "DataRequest",
      "description": "",
      "fieldList": "https://api.bloomberg.com/eap/catalogs/48408/requests/uLEyUpTfRC4F/fieldList/",
      "frequency": "adhoc",
      "identifier": "uLEyUpTfRC4F",
      "issued": "2025-03-10T22:26:47.366457Z",
      "lastRunDateTime": "2025-03-10T22:26:50.251000Z",
      "modified": "2025-03-10T22:26:47.366457Z",
      "name": "A",
      "title": "",
      "trigger": "https://api.bloomberg.com/eap/catalogs/48408/requests/uLEyUpTfRC4F/trigger/",
      "universe": "https://api.bloomberg.com/eap/catalogs/48408/requests/uLEyUpTfRC4F/universe/"
    },
    {
      "@id": "uXjfwVLfeoN4/",
      "@type": "DataRequest",
      "description": "",
      "fieldList": "https://api.bloomberg.com/eap/catalogs/48408/requests/uXjfwVLfeoN4/fieldList/",
      "frequency": "adhoc",
      "identifier": "uXjfwVLfeoN4",
      "issued": "2025-03-10T22:22:45.529581Z",
      "lastRunDateTime": "2025-03-10T22:22:51.688000Z",
      "modified": "2025-03-10T22:22:45.529581Z",
      "name": "A",
      "title": "",
      "trigger": "https://api.bloomberg.com/eap/catalogs/48408/requests/uXjfwVLfeoN4/trigger/",
      "universe": "https://api.bloomberg.com/eap/catalogs/48408/requests/uXjfwVLfeoN4/universe/"
    }
  ],
  "description": "A collection of requests.",
  "identifier": "requests",
  "pageCount": 5,
  "title": "Available requests",
  "totalItems": 88,
  "view": {
    "@id": "?page=1",
    "@type": "PartialCollectionView",
    "first": "?page=1",
    "last": "?page=5",
    "next": "?page=2"
  }
}