{
  "@context": {
    "@base": "https://api.bloomberg.com/eap/catalogs/48408/datasets/",
    "@vocab": "https://api.bloomberg.com/eap/ontology#"
  },
  "@id": "",
  "@type": [
    "Collection",
    "BasicContainer"
  ],
  "contains": [
    {
      "@id": "uXjFrYToJjNd/",
      "@type": "Dataset",
      "description": "Some description",
      "extensions": [
        "bbg"
      ],
      "identifier": "uXjFrYToJjNd",
      "request": "/eap/catalogs/48408/requests/uXjFrYToJjNd/",
      "title": ""
    },
    {
      "@id": "uAu8j5moVZC2/",
      "@type": "Dataset",
      "description": "Some description",
      "extensions": [
        "bbg"
      ],
      "identifier": "uAu8j5moVZC2",
      "request": "/eap/catalogs/48408/requests/uAu8j5moVZC2/",
      "title": ""
    },
    {
      "@id": "uWRwK8EgNh42/",
      "@type": "Dataset",
      "description": "Some description",
      "extensions": [
        "bbg"
      ],
      "identifier": "uWRwK8EgNh42",
      "request": "/eap/catalogs/48408/requests/uWRwK8EgNh42/",
      "title": ""
    },
    {
      "@id": "uFaWBTwUQw7N/",
      "@type": "Dataset",
      "description": "",
      "extensions": [
        "bbg"
      ],
      "identifier": "uFaWBTwUQw7N",
      "request": "/eap/catalogs/48408/requests/uFaWBTwUQw7N/",
      "title": ""
    },
    {
      "@id": "uZ43aQFeqCRE/",
      "@type": "TickHistoryDataset",
      "description": "Some description",
      "extensions": [
        "bbg"
      ],
      "identifier": "uZ43aQFeqCRE",
      "request": "/eap/catalogs/48408/requests/uZ43aQFeqCRE/",
      "title": ""
    },
    {
      "@id": "udYccmzdThy1/",
      "@type": "Dataset",
      "description": "Some description",
      "extensions": [
        "bbg"
      ],
      "identifier": "udYccmzdThy1",
      "request": "/eap/catalogs/48408/requests/udYccmzdThy1/",
      "title": ""
    },
    {
      "@id": "uPfqiQGEh3w9/",
      "@type": "Dataset",
      "description": "Fundamental ratios request",
      "extensions": [
        "bbg"
      ],
      "identifier": "uPfqiQGEh3w9",
      "request": "/eap/catalogs/48408/requests/uPfqiQGEh3w9/",
      "title": ""
    },
    {
      "@id": "uT2KsynpxWTG/",
      "@type": "Dataset",
      "description": "Some description",
      "extensions": [
        "bbg"
      ],
      "identifier": "uT2KsynpxWTG",
      "request": "/eap/catalogs/48408/requests/uT2KsynpxWTG/",
      "title": ""
    },
    {
      "@id": "u87Qd1jsRedE/",
      "@type": "Dataset",
      "description": "",
      "extensions": [
        "bbg"
      ],
      "identifier": "u87Qd1jsRedE",
      "request": "/eap/catalogs/48408/requests/u87Qd1jsRedE/",
      "title": ""
    },
    {
      "@id": "ucL9uBDtcDVy/",
      "@type": "HistoryDataset",
      "description": "My Fundamentals history request",
      "extensions": [
        "bbg"
      ],
      "identifier": "ucL9uBDtcDVy",
      "request": "/eap/catalogs/48408/requests/ucL9uBDtcDVy/",
      "title": ""
    },
    {
      "@id": "u5YPiUoCRGmD/",
      "@type": "Dataset",
      "description": "Some description",
      "extensions": [
        "bbg"
      ],
      "identifier": "u5YPiUoCRGmD",
      "request": "/eap/catalogs/48408/requests/u5YPiUoCRGmD/",
      "title": ""
    },
    {
      "@id": "ueKGwkGkn5Pn/",
      "@type": "Dataset",
      "description": "Some description",
      "extensions": [
        "bbg"
      ],
      "identifier": "ueKGwkGkn5Pn",
      "request": "/eap/catalogs/48408/requests/ueKGwkGkn5Pn/",
      "title": ""
    },
    {
      "@id": "uXyBejzAWJab/",
      "@type": "Dataset",
      "description": "Some description",
      "extensions": [
        "bbg"
      ],
      "identifier": "uXyBejzAWJab",
      "request": "/eap/catalogs/48408/requests/uXyBejzAWJab/",
      "title": ""
    },
    {
      "@id": "uhse8TuL9c8s/",
      "@type": "Dataset",
      "description": "ESG data request using minimal fields",
      "extensions": [
        "bbg"
      ],
      "identifier": "uhse8TuL9c8s",
      "request": "/eap/catalogs/48408/requests/uhse8TuL9c8s/",
      "title": "ESGDataRequest_20250310_191213_96679b"
    },
    {
      "@id": "uK6vuJh1Ryut/",
      "@type": "Dataset",
      "description": "ESG data request using minimal fields",
      "extensions": [
        "bbg"
      ],
      "identifier": "uK6vuJh1Ryut",
      "request": "/eap/catalogs/48408/requests/uK6vuJh1Ryut/",
      "title": "ESGDataRequest_20250310_191050_f66dcd"
    },
    {
      "@id": "uXwGFSzXDnFX/",
      "@type": "Dataset",
      "description": "",
      "extensions": [
        "bbg"
      ],
      "identifier": "uXwGFSzXDnFX",
      "request": "/eap/catalogs/48408/requests/uXwGFSzXDnFX/",
      "title": ""
    },
    {
      "@id": "ubsf28wHfAGs/",
      "@type": "Dataset",
      "description": "",
      "extensions": [
        "bbg"
      ],
      "identifier": "ubsf28wHfAGs",
      "request": "/eap/catalogs/48408/requests/ubsf28wHfAGs/",
      "title": ""
    },
    {
      "@id": "u9BaqbuSZv3J/",
      "@type": "Dataset",
      "description": "",
      "extensions": [
        "bbg"
      ],
      "identifier": "u9BaqbuSZv3J",
      "request": "/eap/catalogs/48408/requests/u9BaqbuSZv3J/",
      "title": ""
    },
    {
      "@id": "uLEyUpTfRC4F/",
      "@type": "Dataset",
      "description": "",
      "extensions": [
        "bbg"
      ],
      "identifier": "uLEyUpTfRC4F",
      "request": "/eap/catalogs/48408/requests/uLEyUpTfRC4F/",
      "title": ""
    },
    {
      "@id": "uXjfwVLfeoN4/",
      "@type": "Dataset",
      "description": "",
      "extensions": [
        "bbg"
      ],
      "identifier": "uXjfwVLfeoN4",
      "request": "/eap/catalogs/48408/requests/uXjfwVLfeoN4/",
      "title": ""
    }
  ],
  "description": "Available datasets for a catalog.",
  "identifier": "datasets",
  "pageCount": 5,
  "title": "Bloomberg Datasets",
  "totalItems": 88,
  "view": {
    "@id": "?page=1",
    "@type": "PartialCollectionView",
    "first": "?page=1",
    "last": "?page=5",
    "next": "?page=2"
  }
}